{
  "builder": {
    "gc": {
      "defaultKeepStorage": "20GB",
      "enabled": true
    }
  },
  "debug": true,
  "experimental": true,
  "features": {
    "buildkit": false
  },
  "insecure-registries": [],
  "exec-opts": [
    "native.cgroupdriver=cgroupfs"
  ],
  "registry-mirrors": [
    "https://registry.hub.docker.com",
    "http://hub-mirror.c.163.com",
    "https://mirror.baidubce.com",
    "https://docker.mirrors.sjtug.sjtu.edu.cn",
    "https://docker.nju.edu.cn",
    "https://ghcr.nju.edu.cn",
    "https://registry.docker-cn.com"
  ]
}